Division,WeightClassKg,Place,Name,Team,BodyweightKg,Best3SquatKg,Best3BenchKg,Best3DeadliftKg,TotalKg,Equipment,Event,Sex,BirthDate
Boys,51.71,1,Rigby Bailes,Coldspring-Oakhurst,51.71,113.4,52.16,113.4,278.96,Unlimited,SBD,M,
Boys,51.71,2,Matthew Jug,Conroe Oak Ridge,50.8,97.52,61.23,111.13,269.89,Unlimited,SBD,M,
Boys,51.71,3,Clint Batey,Shepherd,46.27,86.18,34.02,83.91,204.12,Unlimited,SBD,M,
Boys,51.71,DQ,Tucker Moreland,Willis,51.71,,,,,Unlimited,SBD,M,
Boys,51.71,DQ,Daniel Wetz,Conroe Caney Creek,51.71,,,,,Unlimited,SBD,M,
Boys,55.79,1,Bryce Wiley,Conroe The Woodlands,55.34,181.44,106.59,197.31,485.34,Unlimited,SBD,M,
Boys,55.79,2,Diego Orozco,Shepherd,54.88,147.42,68.04,151.95,367.41,Unlimited,SBD,M,
Boys,59.87,1,Donnie Statham,Conroe,59.33,170.1,106.59,170.1,446.79,Unlimited,SBD,M,
Boys,59.87,2,Bryton Davidson,New Caney,57.52,158.76,79.38,183.7,421.84,Unlimited,SBD,M,
Boys,59.87,3,Adahir Landeros,Conroe,59.42,156.49,95.25,154.22,405.97,Unlimited,SBD,M,
Boys,59.87,4,Johnathan Miller,Willis,58.33,145.15,86.18,154.22,385.55,Unlimited,SBD,M,
Boys,59.87,5,Willie Castro,Conroe Caney Creek,59.06,145.15,74.84,142.88,362.87,Unlimited,SBD,M,
Boys,59.87,DQ,Erik Sanchez,Conroe,59.87,,,,,Unlimited,SBD,M,
Boys,59.87,DQ,James Walker,Willis,58.97,124.74,,,,Unlimited,SBD,M,
Boys,67.13,1,Enzo Altamirano,Conroe,67.13,224.53,142.88,222.26,589.67,Unlimited,SBD,M,
Boys,67.13,2,Caleb Henderson,Conroe Oak Ridge,66.41,217.72,142.88,197.31,557.92,Unlimited,SBD,M,
Boys,67.13,3,Cyrus Martinez,Shepherd,66.32,222.26,111.13,217.72,551.11,Unlimited,SBD,M,
Boys,67.13,4,Ethan Gigliotta,Montgomery,67.04,217.72,113.4,204.12,535.24,Unlimited,SBD,M,
Boys,67.13,5,Kason Henry,Conroe The Woodlands,61.96,188.24,108.86,210.92,508.02,Unlimited,SBD,M,
Boys,67.13,6,Jayson Kimberly,Montgomery,66.04,176.9,120.2,210.92,508.02,Unlimited,SBD,M,
Boys,67.13,7,Steven Lozano,Conroe Grand Oaks,65.5,174.63,117.93,192.78,485.34,Unlimited,SBD,M,
Boys,67.13,8,Joshua Saucedo,Shepherd,65.05,165.56,90.72,190.51,446.79,Unlimited,SBD,M,
Boys,67.13,9,Collyn Smith,Willis,66.22,170.1,115.67,156.49,442.25,Unlimited,SBD,M,
Boys,67.13,10,Alex Orozco,Shepherd,66.68,165.56,83.91,170.1,419.57,Unlimited,SBD,M,
Boys,67.13,11,Jacob Banquelos,Conroe Caney Creek,66.5,133.81,97.52,151.95,383.29,Unlimited,SBD,M,
Boys,67.13,12,James Hansford,Shepherd,67.13,142.88,79.38,151.95,374.21,Unlimited,SBD,M,
Boys,67.13,13,Junior Castro,Conroe Caney Creek,65.5,142.88,83.91,142.88,369.68,Unlimited,SBD,M,
Boys,67.13,14,Josue Cardona,Conroe Caney Creek,63.41,122.47,83.91,154.22,360.61,Unlimited,SBD,M,
Boys,74.84,1,Cesar Cantu,Willis,72.57,256.28,142.88,254.01,653.17,Unlimited,SBD,M,
Boys,74.84,2,Colton Olsen,Conroe Oak Ridge,74.39,247.21,142.88,226.8,616.89,Unlimited,SBD,M,
Boys,74.84,3,Kaden McMilan,Montgomery,71.76,215.46,161.03,204.12,580.6,Unlimited,SBD,M,
Boys,74.84,4,Paul Jeminez,Shepherd,68.67,204.12,129.27,195.04,528.44,Unlimited,SBD,M,
Boys,74.84,5,Urban Woodrome,Conroe,71.94,201.85,111.13,199.58,512.56,Unlimited,SBD,M,
Boys,74.84,6,Colton Bailey,Coldspring-Oakhurst,74.66,179.17,113.4,188.24,480.81,Unlimited,SBD,M,
Boys,74.84,7,Dylan Sprayberry,New Caney,73.75,170.1,113.4,185.97,469.47,Unlimited,SBD,M,
Boys,74.84,8,Hagen Adams,Shepherd,69.31,181.44,102.06,183.7,467.2,Unlimited,SBD,M,
Boys,74.84,9,Keith Baker,Shepherd,72.57,183.7,102.06,172.37,458.13,Unlimited,SBD,M,
Boys,74.84,10,Lucas Shaff,Shepherd,71.21,167.83,106.59,181.44,455.86,Unlimited,SBD,M,
Boys,74.84,11,Timothy Williams,Conroe Caney Creek,74.84,163.29,111.13,179.17,453.59,Unlimited,SBD,M,
Boys,74.84,12,Hayden Schroyer,Shepherd,74.3,147.42,95.25,188.24,430.91,Unlimited,SBD,M,
Boys,74.84,13,David Neal,Shepherd,72.12,142.88,92.99,151.95,387.82,Unlimited,SBD,M,
Boys,74.84,14,Josiah Miguel,Conroe Caney Creek,73.94,136.08,90.72,140.61,367.41,Unlimited,SBD,M,
Boys,74.84,DQ,Terry Mills,Coldspring-Oakhurst,74.84,,,,,Unlimited,SBD,M,
Boys,74.84,DQ,Wade Currie,Coldspring-Oakhurst,74.84,,,,,Unlimited,SBD,M,
Boys,74.84,DQ,Caleb Liliquist,Coldspring-Oakhurst,72.85,167.83,,,,Unlimited,SBD,M,
Boys,74.84,DQ,Bryce Moore,Conroe Grand Oaks,74.57,233.6,,,,Unlimited,SBD,M,
Boys,82.1,1,Gage Murphy,Shepherd,80.2,301.64,183.7,247.21,732.55,Unlimited,SBD,M,
Boys,82.1,2,Ethan Haynes,Willis,80.92,303.91,142.88,247.21,694,Unlimited,SBD,M,
Boys,82.1,3,TraeShawn Brown,Huntsville,79.47,226.8,151.95,233.6,612.35,Unlimited,SBD,M,
Boys,82.1,4,Braden McEldowney,Conroe Grand Oaks,81.83,242.67,142.88,226.8,612.35,Unlimited,SBD,M,
Boys,82.1,5,Muiz Oluwole,Huntsville,81.92,233.6,147.42,226.8,607.81,Unlimited,SBD,M,
Boys,82.1,6,Khalfani Taylor,Conroe Grand Oaks,81.19,217.72,127.01,238.14,582.87,Unlimited,SBD,M,
Boys,82.1,7,Orlando Barrera,Conroe,79.11,242.67,102.06,226.8,571.53,Unlimited,SBD,M,
Boys,82.1,8,Dario Lozano Flores,Willis,80.92,224.53,117.93,215.46,557.92,Unlimited,SBD,M,
Boys,82.1,9,Azi Jefferson,Conroe,80.38,192.78,136.08,226.8,555.65,Unlimited,SBD,M,
Boys,82.1,10,AJ Moreno,Conroe Oak Ridge,80.65,219.99,149.69,183.7,553.38,Unlimited,SBD,M,
Boys,82.1,11,Juan Garcia,Huntsville,81.28,222.26,131.54,185.97,539.77,Unlimited,SBD,M,
Boys,82.1,12,Colton Adams,Conroe Grand Oaks,80.56,165.56,133.81,226.8,526.17,Unlimited,SBD,M,
Boys,82.1,13,Ty Youngblood,Conroe Woodlands College Park,77.75,199.58,156.49,163.29,519.36,Unlimited,SBD,M,
Boys,82.1,14,Braiden Wylie,Willis,76.38,204.12,83.91,226.8,514.83,Unlimited,SBD,M,
Boys,82.1,15,Jayden King,Conroe Oak Ridge,79.38,158.76,106.59,226.8,492.15,Unlimited,SBD,M,
Boys,82.1,16,Fernando Valencia,New Caney,75.66,156.49,102.06,161.03,419.57,Unlimited,SBD,M,
Boys,82.1,17,Jeremy Gomez,Conroe Woodlands College Park,78.83,163.29,92.99,161.03,417.3,Unlimited,SBD,M,
Boys,82.1,18,Jordan Fuller,Montgomery,79.65,158.76,90.72,154.22,403.7,Unlimited,SBD,M,
Boys,82.1,19,Jaden Jackson,Houston Eisenhower,79.65,108.86,90.72,136.08,335.66,Unlimited,SBD,M,
Boys,82.1,20,Andrew Martin,Conroe The Woodlands,79.29,131.54,65.77,129.27,326.59,Unlimited,SBD,M,
Boys,89.81,1,Jacob Gober,Willis,84.1,276.69,197.31,242.67,716.68,Unlimited,SBD,M,
Boys,89.81,2,Zach Lunn,Conroe Grand Oaks,89.18,265.35,161.03,244.94,671.32,Unlimited,SBD,M,
Boys,89.81,3,Kevin Guerra,Willis,86.82,242.67,113.4,208.65,564.72,Unlimited,SBD,M,
Boys,89.81,4,Jonathan Floria,Shepherd,83.73,208.65,124.74,215.46,548.85,Unlimited,SBD,M,
Boys,89.81,5,Andrew Sanchez,Conroe Caney Creek,86.45,215.46,133.81,192.78,542.04,Unlimited,SBD,M,
Boys,89.81,6,Jacob Davis,Shepherd,88.45,195.04,113.4,183.7,492.15,Unlimited,SBD,M,
Boys,89.81,7,Rigoberto Mata,Conroe Caney Creek,88.81,172.37,111.13,208.65,492.15,Unlimited,SBD,M,
Boys,89.81,8,Ben Gomez,Conroe Woodlands College Park,84.82,131.54,79.38,149.69,360.61,Unlimited,SBD,M,
Boys,89.81,DQ,Asbell Hernandez,Houston Eisenhower,89.81,,,,,Unlimited,SBD,M,
Boys,99.79,1,Garrett Loar,Willis,91.63,310.71,183.7,272.16,766.57,Unlimited,SBD,M,
Boys,99.79,2,Bryan Redd,Huntsville,91.44,276.69,222.26,233.6,732.55,Unlimited,SBD,M,
Boys,99.79,3,Adrian Scott,Montgomery,98.7,249.48,165.56,204.12,619.15,Unlimited,SBD,M,
Boys,99.79,4,Jailen Baldwin,Huntsville,96.43,215.46,163.29,238.14,616.89,Unlimited,SBD,M,
Boys,99.79,5,Austen Hernandez,Willis,95.89,233.6,156.49,219.99,610.08,Unlimited,SBD,M,
Boys,99.79,6,Jensen Garner,Conroe Grand Oaks,94.26,201.85,151.95,217.72,571.53,Unlimited,SBD,M,
Boys,99.79,7,Travis VanSchcuyver,Willis,93.71,208.65,127.01,233.6,569.26,Unlimited,SBD,M,
Boys,99.79,8,Cooper Darce,Conroe The Woodlands,96.34,215.46,147.42,204.12,566.99,Unlimited,SBD,M,
Boys,99.79,9,Zack Moss,Huntsville,98.25,188.24,142.88,222.26,553.38,Unlimited,SBD,M,
Boys,99.79,10,Hector Rodriguez,Conroe Caney Creek,95.16,192.78,108.86,242.67,544.31,Unlimited,SBD,M,
Boys,99.79,11,Aiden Runnels,Conroe Grand Oaks,98.43,197.31,124.74,215.46,537.51,Unlimited,SBD,M,
Boys,99.79,12,Devin Ostertag,Willis,93.17,199.58,127.01,204.12,530.7,Unlimited,SBD,M,
Boys,99.79,13,Shiloh Jones,Huntsville,98.79,204.12,136.08,183.7,523.9,Unlimited,SBD,M,
Boys,99.79,14,Jayden Canady,Conroe Oak Ridge,98.52,179.17,129.27,181.44,489.88,Unlimited,SBD,M,
Boys,99.79,15,Will Mathias,Conroe Woodlands College Park,95.71,154.22,108.86,158.76,421.84,Unlimited,SBD,M,
Boys,99.79,DQ,Camerion West,Coldspring-Oakhurst,99.79,,,,,Unlimited,SBD,M,
Boys,109.77,1,Luke Cannon,Conroe,107.68,281.23,165.56,258.55,705.34,Unlimited,SBD,M,
Boys,109.77,2,Nick Perez,Conroe Oak Ridge,108.41,290.3,179.17,231.33,700.8,Unlimited,SBD,M,
Boys,109.77,3,Carson Schottie,Conroe,102.42,238.14,167.83,235.87,641.83,Unlimited,SBD,M,
Boys,109.77,4,Mikie Thompson,Conroe Oak Ridge,109.32,260.82,149.69,226.8,637.3,Unlimited,SBD,M,
Boys,109.77,5,Travis Kopeck,Conroe Grand Oaks,106.5,247.21,165.56,217.72,630.49,Unlimited,SBD,M,
Boys,109.77,6,Javon Kindle,Willis,109.32,219.99,179.17,213.19,612.35,Unlimited,SBD,M,
Boys,109.77,7,Kellyn Husband,Coldspring-Oakhurst,101.15,217.72,183.7,208.65,610.08,Unlimited,SBD,M,
Boys,109.77,8,Colton Francis,Conroe Oak Ridge,105.78,242.67,131.54,217.72,591.94,Unlimited,SBD,M,
Boys,109.77,9,Ernesto Carreo,Conroe Caney Creek,104.87,238.14,129.27,206.38,573.79,Unlimited,SBD,M,
Boys,109.77,10,Ben Thomas,Conroe The Woodlands,109.59,213.19,117.93,222.26,553.38,Unlimited,SBD,M,
Boys,109.77,11,Taylor Winn,Conroe,107.68,210.92,142.88,183.7,537.51,Unlimited,SBD,M,
Boys,109.77,12,Austin Hinson,Conroe Woodlands College Park,103.87,226.8,124.74,183.7,535.24,Unlimited,SBD,M,
Boys,109.77,13,Jared Harris,Conroe Grand Oaks,108.86,235.87,124.74,174.63,535.24,Unlimited,SBD,M,
Boys,109.77,14,Gerinho Lima,Houston Eisenhower,104.14,183.7,136.08,199.58,519.36,Unlimited,SBD,M,
Boys,109.77,15,Noah Minchew,Conroe Woodlands College Park,104.42,174.63,124.74,161.03,460.4,Unlimited,SBD,M,
Boys,109.77,16,Jarrell Jackson,Houston Eisenhower,100.06,142.88,102.06,204.12,449.06,Unlimited,SBD,M,
Boys,109.77,DQ,Jyree Jefferson,Conroe The Woodlands,109.77,,,,,Unlimited,SBD,M,
Boys,109.77,DQ,Tyler Grant,Conroe Grand Oaks,109.77,,,,,Unlimited,SBD,M,
Boys,109.77,DQ,Wyatt Laird,New Caney,105.69,210.92,,,,Unlimited,SBD,M,
Boys,124.74,1,Caleb Fletcher,Willis,121.29,290.3,192.78,235.87,718.94,Unlimited,SBD,M,
Boys,124.74,2,Cooper Hydock,Montgomery,121.29,276.69,170.1,247.21,694,Unlimited,SBD,M,
Boys,124.74,3,Peyton Robinson,Conroe Woodlands College Park,116.66,285.76,167.83,226.8,680.39,Unlimited,SBD,M,
Boys,124.74,4,Christian Santiago,New Caney,121.56,247.21,151.95,260.82,659.98,Unlimited,SBD,M,
Boys,124.74,5,Connor Moomaw,Conroe The Woodlands,120.56,265.35,158.76,215.46,639.57,Unlimited,SBD,M,
Boys,124.74,6,Walker Mott,Conroe Oak Ridge,116.94,226.8,161.03,231.33,619.15,Unlimited,SBD,M,
Boys,124.74,7,Noah Castro,Shepherd,123.56,265.35,124.74,226.8,616.89,Unlimited,SBD,M,
Boys,124.74,8,Kobie Cheek,Shepherd,116.57,260.82,147.42,197.31,605.55,Unlimited,SBD,M,
Boys,124.74,9,Moises Vega,Conroe Caney Creek,113.67,238.14,124.74,210.92,573.79,Unlimited,SBD,M,
Boys,124.74,10,Andres Guerra,Conroe Oak Ridge,113.67,222.26,154.22,197.31,573.79,Unlimited,SBD,M,
Boys,124.74,11,Brock Menzie,Conroe Woodlands College Park,116.03,231.33,138.35,192.78,562.45,Unlimited,SBD,M,
Boys,124.74,12,Casey Murray,Conroe The Woodlands,117.3,163.29,88.45,185.97,437.72,Unlimited,SBD,M,
Boys,124.74,DQ,Brandon Mathis,Conroe,115.67,254.01,199.58,,,Unlimited,SBD,M,
Boys,139.71,1,Leithan Beck,Shepherd,129.5,310.71,165.56,260.82,737.09,Unlimited,SBD,M,
Boys,139.71,2,Logan Hilton,Willis,127.19,265.35,174.63,219.99,659.98,Unlimited,SBD,M,
Boys,139.71,3,Josh Ashton,Conroe The Woodlands,130.18,242.67,158.76,204.12,605.55,Unlimited,SBD,M,
Boys,139.71,4,Frankie Long,Willis,127.19,235.87,170.1,195.04,601.01,Unlimited,SBD,M,
Boys,139.71,5,Jacob Davis,Conroe Oak Ridge,129.64,249.48,147.42,195.04,591.94,Unlimited,SBD,M,
Boys,139.71,6,Luke Adams,Conroe Woodlands College Park,134.08,226.8,142.88,210.92,580.6,Unlimited,SBD,M,
Boys,139.71,7,Sam Ellis,Conroe The Woodlands,128.19,215.46,124.74,215.46,555.65,Unlimited,SBD,M,
Boys,139.71,8,Joshua Rossow,Conroe,134.63,204.12,158.76,185.97,548.85,Unlimited,SBD,M,
Boys,139.71,9,Chance Kroll,Montgomery,136.26,181.44,124.74,183.7,489.88,Unlimited,SBD,M,
Boys,139.71,10,Vincent Lange,Conroe Oak Ridge,134.26,174.63,122.47,174.63,471.74,Unlimited,SBD,M,
Boys,139.71,11,Christopher Romero,Houston Eisenhower,132.99,145.15,90.72,176.9,412.77,Unlimited,SBD,M,
