Division,WeightClassKg,Place,Name,Team,BodyweightKg,Best3SquatKg,Best3BenchKg,Best3DeadliftKg,TotalKg,Equipment,Event,Sex,BirthDate
Boys,51.71,1,Kennedy Miller,Henderson,51.71,90.72,58.97,113.4,263.08,Unlimited,SBD,M,
Boys,55.79,1,Preston Goodman,Henderson,55.79,127.01,70.31,131.54,328.85,Unlimited,SBD,M,
Boys,59.87,1,Juan Ordorica,Winona,58.97,156.49,115.67,172.37,444.52,Unlimited,SBD,M,
Boys,59.87,2,Izaiah Compean,Diboll,59.42,149.69,79.38,163.29,392.36,Unlimited,SBD,M,
Boys,67.13,1,Cooper Bailey,Redwater,66.22,181.44,90.72,167.83,439.98,Unlimited,SBD,M,
Boys,67.13,2,Jared Hernandez,Winona,66.22,172.37,102.06,158.76,433.18,Unlimited,SBD,M,
Boys,67.13,DQ,Aidan Gonzalez,Jacksonville,66.22,165.56,120.2,,,Unlimited,SBD,M,
Boys,74.84,1,Lurbryson Ross,Winona,74.84,188.24,142.88,188.24,519.36,Unlimited,SBD,M,
Boys,74.84,2,Brandon Aguilar,Garrison,73.48,185.97,99.79,190.51,476.27,Unlimited,SBD,M,
Boys,74.84,DQ,Cole Heard,Beckville,74.39,233.6,142.88,,,Unlimited,SBD,M,
Boys,82.1,1,Jamie Fuller,Garrison,81.65,188.24,129.27,183.7,501.22,Unlimited,SBD,M,
Boys,82.1,2,Walker Dublin,Jacksonville,81.19,176.9,133.81,188.24,498.95,Unlimited,SBD,M,
Boys,82.1,3,Griffin Barham,Garrison,79.83,192.78,113.4,183.7,489.88,Unlimited,SBD,M,
Boys,82.1,4,Ronnie Jernigan,Garrison,81.19,181.44,113.4,163.29,458.13,Unlimited,SBD,M,
Boys,82.1,5,Wyatt Miller,Garrison,75.3,147.42,90.72,142.88,381.02,Unlimited,SBD,M,
Boys,89.81,1,Joe Herrera,Henderson,89.36,226.8,138.35,192.78,557.92,Unlimited,SBD,M,
Boys,89.81,2,Luis Arambula,Diboll,82.55,217.72,117.93,208.65,544.31,Unlimited,SBD,M,
Boys,89.81,3,Bo Pollard,Garrison,86.64,226.8,138.35,179.17,544.31,Unlimited,SBD,M,
Boys,89.81,4,Jeremy Pleasant,Garrison,87.09,167.83,97.52,183.7,449.06,Unlimited,SBD,M,
Boys,99.79,1,Lawson Angel,Redwater,94.35,226.8,124.74,226.8,578.33,Unlimited,SBD,M,
Boys,99.79,2,Caelan Soultanov,Jacksonville,93.89,176.9,142.88,199.58,519.36,Unlimited,SBD,M,
Boys,109.77,1,Alex Ramirez,Jacksonville,107.5,199.58,129.27,215.46,544.31,Unlimited,SBD,M,
Boys,124.74,1,Jerimya Corn,Garrison,117.93,249.48,149.69,188.24,587.4,Unlimited,SBD,M,
Boys,124.74,2,Adrian Alexander,Henderson,122.92,235.87,136.08,208.65,580.6,Unlimited,SBD,M,
Boys,139.71,1,Jiovann Rangel,Jacksonville,130.63,226.8,136.08,208.65,571.53,Unlimited,SBD,M,
Boys,139.71+,1,Grayson McDonald,Beckville,143.34,170.1,92.99,154.22,417.3,Unlimited,SBD,M,
