Division,WeightClassKg,Place,Name,Team,BodyweightKg,Best3SquatKg,Best3BenchKg,Best3DeadliftKg,TotalKg,Equipment,Event,Sex,BirthDate
Boys,51.71,1,Damian Ash,Royse City,50.62,161.03,102.06,161.03,424.11,Unlimited,SBD,M,
Boys,51.71,2,Cooper Hooks,Huntsville,51.35,140.61,92.99,151.95,385.55,Unlimited,SBD,M,
Boys,51.71,3,Limaje Stuckey,Texarkana Texas,50.17,138.35,68.04,145.15,351.53,Unlimited,SBD,M,
Boys,51.71,4,JhiMarcion Owens,Whitehouse,49.26,136.08,79.38,131.54,347,Unlimited,SBD,M,
Boys,51.71,5,Jeremiah Jackson,Royse City,50.53,117.93,70.31,124.74,312.98,Unlimited,SBD,M,
Boys,51.71,6,Alejandro Castro,Mount Pleasant,50.35,104.33,56.7,131.54,292.57,Unlimited,SBD,M,
Boys,51.71,7,Jeremiah Smith,Crandall,51.07,108.86,63.5,113.4,285.76,Unlimited,SBD,M,
Boys,51.71,8,Angel Delrio,Forney,51.71,104.33,56.7,113.4,274.42,Unlimited,SBD,M,
Boys,51.71,9,Jacob Carpio,Bishop Lynch,51.44,92.99,61.23,106.59,260.82,Unlimited,SBD,M,
Boys,51.71,DQ,David Lopez,Coppell,51.35,136.08,77.11,,,Unlimited,SBD,M,
Boys,51.71,NS,Nathan Flores,Carrollton Smith,,,,,,Unlimited,SBD,M,
Boys,51.71,NS,Daniel Okechukwu,North Garland,,,,,,Unlimited,SBD,M,
Boys,55.79,1,Kevin Chavez,Royse City,54.52,176.9,92.99,192.78,462.66,Unlimited,SBD,M,
Boys,55.79,2,Jayson Clark,Marshall,54.98,151.95,102.06,176.9,430.91,Unlimited,SBD,M,
Boys,55.79,3,Kaleb Dollison,Longview Pine Tree,55.43,172.37,97.52,151.95,421.84,Unlimited,SBD,M,
Boys,55.79,4,Eli Ochoa,Lufkin,54.61,151.95,108.86,151.95,412.77,Unlimited,SBD,M,
Boys,55.79,5,Jaxon Tran,Bishop Lynch,55.52,147.42,92.99,158.76,399.16,Unlimited,SBD,M,
Boys,55.79,6,Dillon Bobbitt,Greenville,53.16,172.37,79.38,142.88,394.63,Unlimited,SBD,M,
Boys,55.79,7,Corbin Branch,Corsicana,54.88,136.08,95.25,163.29,394.63,Unlimited,SBD,M,
Boys,55.79,8,Benito Castro,Longview Pine Tree,55.79,140.61,88.45,156.49,385.55,Unlimited,SBD,M,
Boys,55.79,9,Drew Salters,Forney,55.61,149.69,74.84,154.22,378.75,Unlimited,SBD,M,
Boys,55.79,10,Jared Ricker,Royse City,54.61,138.35,77.11,149.69,365.14,Unlimited,SBD,M,
Boys,55.79,DQ,Henry Tran,Carrollton Turner,53.71,136.08,,,,Unlimited,SBD,M,
Boys,55.79,NS,John Kenney,North Garland,,,,,,Unlimited,SBD,M,
Boys,59.87,1,Nathan Kolstad,Royse City,59.69,199.58,124.74,215.46,539.77,Unlimited,SBD,M,
Boys,59.87,2,Jack Carroll,Dallas Highland Park,58.79,195.04,127.01,176.9,498.95,Unlimited,SBD,M,
Boys,59.87,3,Andy Mejia,Carrollton Creekview,59.24,185.97,113.4,188.24,487.61,Unlimited,SBD,M,
Boys,59.87,4,Nathanial Cates,Mount Pleasant,59.24,176.9,108.86,179.17,464.93,Unlimited,SBD,M,
Boys,59.87,5,Andres Garcia,Corsicana,59.24,185.97,99.79,163.29,449.06,Unlimited,SBD,M,
Boys,59.87,6,Kayden Simms,Royse City,59.78,156.49,111.13,181.44,449.06,Unlimited,SBD,M,
Boys,59.87,7,Josiah Smith,Royse City,59.33,163.29,106.59,158.76,428.64,Unlimited,SBD,M,
Boys,59.87,8,Nathan Vargas,Forney,59.87,161.03,95.25,167.83,424.11,Unlimited,SBD,M,
Boys,59.87,9,Isaac Tapia,Hallsville,58.6,165.56,86.18,167.83,419.57,Unlimited,SBD,M,
Boys,59.87,DQ,Tyler Robinson,Dallas Hillcrest,58.97,136.08,,,,Unlimited,SBD,M,
Boys,59.87,DQ,LaMond Allison,Carrollton Smith,58.97,,,,,Unlimited,SBD,M,
Boys,59.87,DQ,Cole Crawford,Royse City,59.69,170.1,111.13,,,Unlimited,SBD,M,
Boys,67.13,1,Earl Williams,Longview Pine Tree,65.59,224.53,142.88,197.31,564.72,Unlimited,SBD,M,
Boys,67.13,2,Landry Hoffman,Royse City,66.86,213.19,140.61,190.51,544.31,Unlimited,SBD,M,
Boys,67.13,3,Javier Angulo,Coppell,66.32,167.83,122.47,204.12,494.42,Unlimited,SBD,M,
Boys,67.13,4,Isaiah Lee,Dallas Highland Park,65.59,192.78,113.4,183.7,489.88,Unlimited,SBD,M,
Boys,67.13,5,Patrick Corney,Whitehouse,66.22,181.44,120.2,183.7,485.34,Unlimited,SBD,M,
Boys,67.13,6,Quaylin Milligan,Forney,64.86,179.17,102.06,201.85,483.08,Unlimited,SBD,M,
Boys,67.13,7,Cristian Martinez,Corsicana,63.32,158.76,106.59,174.63,439.98,Unlimited,SBD,M,
Boys,67.13,DQ,David Benagh,Carrollton Creekview,66.68,,,,,Unlimited,SBD,M,
Boys,67.13,DQ,Jose Elisondo,Carrollton Turner,66.22,199.58,,,,Unlimited,SBD,M,
Boys,67.13,NS,Raymond Jackson,Carrollton Creekview,,,,,,Unlimited,SBD,M,
Boys,67.13,DQ,Nathan Page,Tyler Legacy,66.32,197.31,111.13,,,Unlimited,SBD,M,
Boys,67.13,DQ,Austin Reynolds,Royse City,67.04,204.12,142.88,,,Unlimited,SBD,M,
Boys,74.84,1,Easton McMillan,Forney,73.94,274.42,190.51,226.8,691.73,Unlimited,SBD,M,
Boys,74.84,2,Hunter Branson,Hallsville,73.03,240.4,179.17,233.6,653.17,Unlimited,SBD,M,
Boys,74.84,3,Cay Golden,Coppell,73.03,244.94,127.01,231.33,603.28,Unlimited,SBD,M,
Boys,74.84,4,Eli Fitzhugh,Corsicana,72.12,192.78,170.1,206.38,569.26,Unlimited,SBD,M,
Boys,74.84,5,Diesel Tijerina,Royse City,73.94,229.06,136.08,192.78,557.92,Unlimited,SBD,M,
Boys,74.84,6,Gabe Roesch,Hallsville,73.75,222.26,131.54,192.78,546.58,Unlimited,SBD,M,
Boys,74.84,7,Ty Gala,Hallsville,73.3,204.12,117.93,219.99,542.04,Unlimited,SBD,M,
Boys,74.84,8,Keyunta Lias,Marshall,69.76,229.06,117.93,192.78,539.77,Unlimited,SBD,M,
Boys,74.84,9,Raimone Flournoy,Longview Pine Tree,72.39,208.65,115.67,204.12,528.44,Unlimited,SBD,M,
Boys,74.84,DQ,Blake Kurtz,Royse City,73.3,,,,,Unlimited,SBD,M,
Boys,74.84,DQ,Jett Monahan,Tyler Legacy,74.84,210.92,151.95,,,Unlimited,SBD,M,
Boys,74.84,DQ,Adrian Juarez Vega,Longview Pine Tree,73.57,226.8,136.08,,,Unlimited,SBD,M,
Boys,82.1,1,Colton Monroe,Bishop Lynch,80.83,294.84,199.58,244.94,739.36,Unlimited,SBD,M,
Boys,82.1,2,Malachi Gray,Longview Pine Tree,80.83,256.28,174.63,272.16,703.07,Unlimited,SBD,M,
Boys,82.1,3,Areion Coln,Richardson,77.56,238.14,199.58,201.85,639.57,Unlimited,SBD,M,
Boys,82.1,4,Sergio Ramirez,Corsicana,79.74,244.94,142.88,231.33,619.15,Unlimited,SBD,M,
Boys,82.1,5,Nathaniel Kirksey,Tyler Legacy,80.1,192.78,156.49,233.6,582.87,Unlimited,SBD,M,
Boys,82.1,6,Braylon Vick,Terrell,81.37,217.72,133.81,217.72,569.26,Unlimited,SBD,M,
Boys,82.1,7,Nicolas Ruiz,Longview Pine Tree,80.83,183.7,149.69,217.72,551.11,Unlimited,SBD,M,
Boys,82.1,8,Gabe Duncan,Royse City,80.1,213.19,142.88,192.78,548.85,Unlimited,SBD,M,
Boys,82.1,DQ,Geo Wafer,Corsicana,79.11,222.26,165.56,,,Unlimited,SBD,M,
Boys,82.1,DQ,TraeShawn Brown,Huntsville,80.47,,,,,Unlimited,SBD,M,
Boys,82.1,DQ,Juymill Lewis,Mount Pleasant,79.38,219.99,145.15,,,Unlimited,SBD,M,
Boys,82.1,DQ,Muiz Oluwole,Huntsville,81.92,231.33,149.69,,,Unlimited,SBD,M,
Boys,89.81,1,Bryan Redd,Huntsville,88,249.48,222.26,233.6,705.34,Unlimited,SBD,M,
Boys,89.81,2,German Del Toro,Terrell,89.18,272.16,165.56,247.21,684.92,Unlimited,SBD,M,
Boys,89.81,3,Billy Shearer,Dallas Highland Park,87.72,254.01,131.54,267.62,653.17,Unlimited,SBD,M,
Boys,89.81,4,Robbie Martinez,Carrollton Turner,87.18,240.4,167.83,242.67,650.91,Unlimited,SBD,M,
Boys,89.81,5,John Paul Akanga,Forney,88.99,249.48,183.7,210.92,644.1,Unlimited,SBD,M,
Boys,89.81,6,Wyatt Tanksley,Tyler Legacy,88.27,249.48,181.44,204.12,635.03,Unlimited,SBD,M,
Boys,89.81,7,Aiden McGinnis,Bishop Lynch,88.27,233.6,163.29,238.14,635.03,Unlimited,SBD,M,
Boys,89.81,8,Austin Shackleford,Crandall,89.81,233.6,149.69,251.74,635.03,Unlimited,SBD,M,
Boys,89.81,9,Julian Fitzgerald,Coppell,86.18,229.06,149.69,215.46,594.21,Unlimited,SBD,M,
Boys,89.81,DQ,DaMarcus Cannon,Carrollton Creekview,89.09,219.99,136.08,,,Unlimited,SBD,M,
Boys,89.81,DQ,Cruz Rivera,Tyler Legacy,88.45,201.85,192.78,,,Unlimited,SBD,M,
Boys,89.81,DQ,Caleb Allen,Hallsville,87.36,247.21,156.49,,,Unlimited,SBD,M,
Boys,89.81,DQ,Matthew Chavez,Lufkin,89.54,,,,,Unlimited,SBD,M,
Boys,99.79,1,Evan Owen,Corsicana,97.16,328.85,217.72,254.01,800.59,Unlimited,SBD,M,
Boys,99.79,2,Justin Murphy,Richardson,98.79,249.48,183.7,272.16,705.34,Unlimited,SBD,M,
Boys,99.79,3,Felipe Juarez,Hallsville,93.89,247.21,163.29,265.35,675.85,Unlimited,SBD,M,
Boys,99.79,4,Garvey Frederic,Coppell,98.7,272.16,165.56,233.6,671.32,Unlimited,SBD,M,
Boys,99.79,5,Alex Brace,Longview Pine Tree,95.62,238.14,176.9,242.67,657.71,Unlimited,SBD,M,
Boys,99.79,6,Devon Burtness,Mount Pleasant,96.07,258.55,183.7,215.46,657.71,Unlimited,SBD,M,
Boys,99.79,7,Roderick Hudson,Mesquite Horn,96.62,242.67,163.29,251.74,657.71,Unlimited,SBD,M,
Boys,99.79,8,Jack Gillis,Richardson Pearce,97.07,251.74,158.76,215.46,625.96,Unlimited,SBD,M,
Boys,99.79,9,Ryder Marshall,Mount Pleasant,97.89,219.99,165.56,233.6,619.15,Unlimited,SBD,M,
Boys,99.79,10,Jailen Baldwin,Huntsville,96.62,208.65,156.49,226.8,591.94,Unlimited,SBD,M,
Boys,99.79,DQ,Nathan Fraire,Garland Naaman Forest,97.7,,,,,Unlimited,SBD,M,
Boys,99.79,DQ,Kevin Espinal,Forney,99.79,,,,,Unlimited,SBD,M,
Boys,109.77,1,Jose Gonzalez,Mount Pleasant,103.24,272.16,201.85,219.99,694,Unlimited,SBD,M,
Boys,109.77,2,Marcus Franklin,Whitehouse,107.86,281.23,167.83,238.14,687.19,Unlimited,SBD,M,
Boys,109.77,3,David Carlisle,Marshall,105.51,285.76,158.76,240.4,684.92,Unlimited,SBD,M,
Boys,109.77,4,Erik Guzman,Longview Pine Tree,108.14,267.62,183.7,233.6,684.92,Unlimited,SBD,M,
Boys,109.77,5,Preston Armstrong,Longview Pine Tree,107.23,272.16,174.63,233.6,680.39,Unlimited,SBD,M,
Boys,109.77,6,Tristan Rodelo,Carrollton Turner,107.68,283.5,147.42,249.48,680.39,Unlimited,SBD,M,
Boys,109.77,7,Amari Tatum,Nacogdoches,108.32,269.89,183.7,226.8,680.39,Unlimited,SBD,M,
Boys,109.77,8,Destin Deans,Carrollton Creekview,103.15,208.65,163.29,244.94,616.89,Unlimited,SBD,M,
Boys,109.77,9,Anthony Wynne,Terrell,108.68,249.48,158.76,204.12,612.35,Unlimited,SBD,M,
Boys,109.77,10,Jd Copeland,Dallas Highland Park,101.79,244.94,142.88,215.46,603.28,Unlimited,SBD,M,
Boys,109.77,DQ,Clayton Miller,Mount Pleasant,108.23,233.6,,,,Unlimited,SBD,M,
Boys,109.77,DQ,James Collier,Tyler,108.23,231.33,,,,Unlimited,SBD,M,
Boys,109.77,DQ,Abisandro Cornelio,Tyler,102.24,,,,,Unlimited,SBD,M,
Boys,124.74,1,Andrew Rodgers,Nacogdoches,122.2,317.51,254.01,290.3,861.83,Unlimited,SBD,M,
Boys,124.74,2,Jadaelyn Jackson,Tyler Legacy,115.39,278.96,188.24,244.94,712.14,Unlimited,SBD,M,
Boys,124.74,3,Tanner Crumpton,Corsicana,119.2,267.62,213.19,222.26,703.07,Unlimited,SBD,M,
Boys,124.74,4,Kutter Vlasin,Forney,123.92,276.69,192.78,233.6,703.07,Unlimited,SBD,M,
Boys,124.74,5,Tristen Taylor,Tyler,116.94,238.14,147.42,285.76,671.32,Unlimited,SBD,M,
Boys,124.74,6,Isaiah Perdomo,Garland Naaman Forest,119.66,244.94,206.38,204.12,655.44,Unlimited,SBD,M,
Boys,124.74,7,Angel Flores,Richardson Pearce,116.57,226.8,174.63,240.4,641.83,Unlimited,SBD,M,
Boys,124.74,8,Akise Williams,Nacogdoches,124.38,224.53,158.76,249.48,632.76,Unlimited,SBD,M,
Boys,124.74,DQ,Rafael Perdomo,Garland Naaman Forest,124.19,385.55,,,,Unlimited,SBD,M,
Boys,124.74,DQ,Michkeal Kennedy,Terrell,113.13,,,,,Unlimited,SBD,M,
Boys,124.74,DQ,Jaydon McAdams,Tyler Legacy,117.48,256.28,167.83,,,Unlimited,SBD,M,
Boys,124.74,NS,Garrett Allsup,Hallsville,,,,,,Unlimited,SBD,M,
Boys,139.71,1,Luke Rodriguez,Forney,133.54,324.32,226.8,269.89,821,Unlimited,SBD,M,
Boys,139.71,2,De'Braylon McDonald,Whitehouse,137.62,317.51,217.72,254.01,789.25,Unlimited,SBD,M,
Boys,139.71,3,Hugo Lopez,Forney,132.99,297.1,201.85,233.6,732.55,Unlimited,SBD,M,
Boys,139.71,4,Amarion Berry,Garland Rowlett,135.71,249.48,145.15,254.01,648.64,Unlimited,SBD,M,
Boys,139.71,5,Bryce Holmes,Texarkana Texas,138.71,265.35,174.63,201.85,641.83,Unlimited,SBD,M,
Boys,139.71,6,Hector Platas,South Garland,132.63,238.14,165.56,231.33,635.03,Unlimited,SBD,M,
Boys,139.71,7,Leandro Escobar,Garland Naaman Forest,133.27,254.01,161.03,219.99,635.03,Unlimited,SBD,M,
Boys,139.71,8,Travis Chinamhora,Carrollton Creekview,128.46,244.94,188.24,195.04,628.23,Unlimited,SBD,M,
Boys,139.71,9,Duncan McGhee,Texarkana Texas,132.36,229.06,142.88,238.14,610.08,Unlimited,SBD,M,
Boys,139.71,NS,Reuben Logan,Royse City,,,,,,Unlimited,SBD,M,
Boys,139.71,DQ,Max Gomez,Corsicana,126.46,226.8,,,,Unlimited,SBD,M,
Boys,139.71,NS,Elijah Alexander,Lufkin,,,,,,Unlimited,SBD,M,
Boys,139.71,NS,Jonathan Menjivar,North Garland,,,,,,Unlimited,SBD,M,
Boys,139.71+,1,Jordan Nichols,Lufkin,153.22,317.51,251.74,288.03,857.29,Unlimited,SBD,M,
Boys,139.71+,2,Zion Williams,Lufkin,148.42,283.5,197.31,247.21,728.02,Unlimited,SBD,M,
Boys,139.71+,3,Jorge Ramos,Corsicana,160.84,290.3,208.65,224.53,723.48,Unlimited,SBD,M,
Boys,139.71+,4,Eric Miller,Tyler Legacy,157.76,263.08,226.8,226.8,716.68,Unlimited,SBD,M,
Boys,139.71+,5,Quentin Lacy,Nacogdoches,147.69,269.89,192.78,238.14,700.8,Unlimited,SBD,M,
Boys,139.71+,6,Jordan Hooks,Bishop Lynch,154.04,244.94,183.7,238.14,666.78,Unlimited,SBD,M,
Boys,139.71+,7,Cameron Clark,Whitehouse,152.13,256.28,183.7,199.58,639.57,Unlimited,SBD,M,
Boys,139.71+,8,Jordan Stafford,Coppell,140.61,229.06,145.15,183.7,557.92,Unlimited,SBD,M,
Boys,139.71+,9,Jaxon Ary,Carrollton Creekview,143.06,208.65,142.88,199.58,551.11,Unlimited,SBD,M,
Boys,139.71+,DQ,Jacob Seaton,Tyler,153.13,238.14,,,,Unlimited,SBD,M,
Boys,139.71+,DQ,Jones Kelm,Tyler Legacy,140.61,267.62,188.24,,,Unlimited,SBD,M,
Boys,139.71+,NS,King David Ibeabuchi,Richardson Lake Highlands,,,,,,Unlimited,SBD,M,
