Division,WeightClassKg,Place,Name,Team,BodyweightKg,Best3SquatKg,Best3BenchKg,Best3DeadliftKg,TotalKg,Equipment,Event,Sex,BirthDate
Boys,55.79,1,Mitchel Escagne,Alvin,55.79,142.88,99.79,154.22,396.89,Unlimited,SBD,M,
Boys,55.79,2,Addison Solis,Pearland,55.34,147.42,102.06,145.15,394.63,Unlimited,SBD,M,
Boys,55.79,3,Blayne Means,Clute Brazoswood,55.79,145.15,92.99,154.22,392.36,Unlimited,SBD,M,
Boys,59.87,1,Reynaldo Moreno,Clute Brazoswood,58.88,172.37,97.52,161.03,430.91,Unlimited,SBD,M,
Boys,59.87,2,Rodrick Singleton,Dickinson,59.51,167.83,97.52,138.35,403.7,Unlimited,SBD,M,
Boys,59.87,DQ,Elijah Wilson,Pasadena Memorial,59.87,154.22,,156.49,,Unlimited,SBD,M,
Boys,67.13,1,Tri Mai,Dickinson,66.95,231.33,133.81,206.38,571.53,Unlimited,SBD,M,
Boys,67.13,2,Jesus Alaniz,Alvin,67.13,229.06,113.4,213.19,555.65,Unlimited,SBD,M,
Boys,67.13,3,Ernesto Trevino,Dickinson,67.09,215.46,138.35,197.31,551.11,Unlimited,SBD,M,
Boys,67.13,4,Jesus Ramirez,Clute Brazoswood,65.86,204.12,133.81,206.38,544.31,Unlimited,SBD,M,
Boys,74.84,1,Chris Moctezuma,Santa Fe,73.94,256.28,147.42,208.65,612.35,Unlimited,SBD,M,
Boys,74.84,2,Jaren Casas,Alvin,74.48,226.8,136.08,204.12,566.99,Unlimited,SBD,M,
Boys,74.84,3,Jyier Jones,La Marque,74.39,204.12,136.08,215.46,555.65,Unlimited,SBD,M,
Boys,74.84,4,Collin McMurray,League City Clear Creek,74.21,210.92,120.2,183.7,514.83,Unlimited,SBD,M,
Boys,74.84,DQ,Tristen Munoz,Dickinson,74.3,229.06,151.95,,,Unlimited,SBD,M,
Boys,82.1,1,Ethan Burden,Pasadena Memorial,81.92,215.46,133.81,210.92,560.19,Unlimited,SBD,M,
Boys,82.1,DQ,Titus Brooks,Pearland,80.38,229.06,104.33,,,Unlimited,SBD,M,
Boys,82.1,DQ,Kevin Rojas de Ordonez,La Porte,78.2,170.1,133.81,,,Unlimited,SBD,M,
Boys,89.81,1,Hudson Windsor,Pearland Dawson,87.41,272.16,161.03,229.06,662.24,Unlimited,SBD,M,
Boys,89.81,2,Kadyn Hodson,Alvin,86.36,256.28,156.49,226.8,639.57,Unlimited,SBD,M,
Boys,89.81,3,Fabian Garza,Pasadena Memorial,87.45,263.08,149.69,226.8,639.57,Unlimited,SBD,M,
Boys,89.81,4,Joseph Floyd,Santa Fe,86.64,260.82,145.15,219.99,625.96,Unlimited,SBD,M,
Boys,89.81,5,Donovan Coffman,League City Clear Creek,87,231.33,133.81,242.67,607.81,Unlimited,SBD,M,
Boys,89.81,6,Brayden Buckalew,Clute Brazoswood,88,233.6,117.93,215.46,566.99,Unlimited,SBD,M,
Boys,89.81,7,Trace Martinez,Alvin,88.54,226.8,138.35,190.51,555.65,Unlimited,SBD,M,
Boys,89.81,8,Glen George,Texas City,86.73,195.04,124.74,213.19,532.97,Unlimited,SBD,M,
Boys,99.79,1,Franklin Alfaro,Santa Fe,98.7,249.48,174.63,233.6,657.71,Unlimited,SBD,M,
Boys,99.79,2,Roy Ramirez,Clute Brazoswood,98.97,240.4,151.95,258.55,650.91,Unlimited,SBD,M,
Boys,99.79,3,Bryce Leal,Santa Fe,94.44,256.28,149.69,235.87,641.83,Unlimited,SBD,M,
Boys,99.79,4,Randy Arredondo,League City Clear Creek,91.44,240.4,145.15,242.67,628.23,Unlimited,SBD,M,
Boys,99.79,5,Chris Prada,Texas City,99.79,272.16,140.61,197.31,610.08,Unlimited,SBD,M,
Boys,99.79,DQ,Mauricio Gloria,Pasadena Memorial,93.08,247.21,145.15,,,Unlimited,SBD,M,
Boys,109.77,1,Luis Ramírez,Dickinson,108.5,251.74,156.49,219.99,628.23,Unlimited,SBD,M,
Boys,109.77,2,Nestor Nieto,Clute Brazoswood,109.77,254.01,154.22,217.72,625.96,Unlimited,SBD,M,
Boys,109.77,3,Ashton Dean,Alvin,102.6,240.4,174.63,204.12,619.15,Unlimited,SBD,M,
Boys,109.77,4,David Campos,La Porte,106.68,242.67,163.29,208.65,614.62,Unlimited,SBD,M,
Boys,109.77,5,Gerardo Rodriguez,Santa Fe,101.7,219.99,161.03,195.04,576.06,Unlimited,SBD,M,
Boys,124.74,1,Leo Mendoza,Clute Brazoswood,121.93,265.35,156.49,219.99,641.83,Unlimited,SBD,M,
Boys,124.74,2,Kenneth Williams,Texas City,118.3,249.48,145.15,226.8,621.42,Unlimited,SBD,M,
Boys,124.74,3,Rylan Smith-Yonts,Clute Brazoswood,116.3,256.28,124.74,233.6,614.62,Unlimited,SBD,M,
Boys,124.74,4,Randy Greenwald,La Marque,121.65,269.89,136.08,204.12,610.08,Unlimited,SBD,M,
Boys,124.74,DQ,Kaden Schirck,Santa Fe,115.12,,,,,Unlimited,SBD,M,
Boys,139.71,1,KeShawn Jones,League City Clear Creek,132.27,299.37,176.9,226.8,703.07,Unlimited,SBD,M,
Boys,139.71,2,Luke Mora,La Porte,133.99,256.28,158.76,242.67,657.71,Unlimited,SBD,M,
Boys,139.71,3,Toby Argo,Pearland,125.74,263.08,161.03,219.99,644.1,Unlimited,SBD,M,
Boys,139.71,DQ,Rey Zertuche,La Porte,130.73,219.99,,,,Unlimited,SBD,M,
Boys,139.71+,1,Jaydan Roberson,La Marque,149.05,174.63,120.2,174.63,469.47,Unlimited,SBD,M,
