Division,WeightClassKg,Place,Name,Team,BodyweightKg,Best3SquatKg,Best3BenchKg,Best3DeadliftKg,TotalKg,Equipment,Event,Sex,BirthDate
Boys,51.71,1,Fabian Solis,Edinburg Idea College Prep,48.53,142.88,83.91,158.76,385.55,Single-ply,SBD,M,
Boys,51.71,2,Kody Estes,Donna,50.48,138.35,70.31,158.76,367.41,Single-ply,SBD,M,
Boys,51.71,3,Justin Flores,Edcouch-Elsa,51.35,142.88,63.5,142.88,349.27,Single-ply,SBD,M,
Boys,51.71,4,Dashel Burrows,Sharyland Pioneer,48.4,124.74,83.91,124.74,333.39,Single-ply,SBD,M,
Boys,51.71,5,Benigno Garcia,Donna,50.58,120.2,74.84,136.08,331.12,Single-ply,SBD,M,
Boys,51.71,6,Joseph Soto,PSJA Memorial,51.71,102.06,61.23,124.74,288.03,Single-ply,SBD,M,
Boys,51.71,7,Carlos Cantu,McAllen Memorial,45.86,106.59,54.43,117.93,278.96,Single-ply,SBD,M,
Boys,55.79,1,Nate Martinez #2,Weslaco East,55.7,192.78,113.4,192.78,498.95,Single-ply,SBD,M,
Boys,55.79,2,Tyler Martinez #2,Edcouch-Elsa,54.93,192.78,99.79,199.58,492.15,Single-ply,SBD,M,
Boys,55.79,3,Trystan Rojas,Edcouch-Elsa,54.11,136.08,77.11,145.15,358.34,Single-ply,SBD,M,
Boys,55.79,4,Oscar Durate,PSJA Memorial,53.52,136.08,83.91,133.81,353.8,Single-ply,SBD,M,
Boys,55.79,5,Seth DeLeon,McAllen Memorial,55.75,113.4,68.04,145.15,326.59,Single-ply,SBD,M,
Boys,55.79,6,Javier Ramos,Edinburg Quest College Prep,55.34,124.74,68.04,131.54,324.32,Single-ply,SBD,M,
Boys,59.87,1,Luis Garcia #9,Sharyland Pioneer,57.11,183.7,113.4,183.7,480.81,Single-ply,SBD,M,
Boys,59.87,2,Jacob Espericueta,La Villa,59.42,165.56,102.06,183.7,451.32,Single-ply,SBD,M,
Boys,59.87,3,John Torres,Edcouch-Elsa,59.1,167.83,88.45,165.56,421.84,Single-ply,SBD,M,
Boys,59.87,4,Diego Cruz,Santa Rosa,59.87,167.83,102.06,151.95,421.84,Single-ply,SBD,M,
Boys,59.87,5,Matthew Sanchez #4,Mission Veterans Memorial,59.78,167.83,81.65,149.69,399.16,Single-ply,SBD,M,
Boys,59.87,6,Mathew Garcia,PSJA Memorial,58.69,133.81,72.57,147.42,353.8,Single-ply,SBD,M,
Boys,59.87,7,Juan Ramirez,PSJA Memorial,59.6,133.81,65.77,147.42,347,Single-ply,SBD,M,
Boys,59.87,8,Gio Pacheco,Edinburg Idea College Prep,59.19,120.2,77.11,133.81,331.12,Single-ply,SBD,M,
Boys,59.87,DQ,Elias Guerrero,Donna,56.93,138.35,77.11,,,Single-ply,SBD,M,
Boys,67.13,1,Ever Crispin,Edcouch-Elsa,66.36,272.16,149.69,260.82,682.66,Single-ply,SBD,M,
Boys,67.13,2,Oscar Garza,Edinburg Idea College Prep,66.81,183.7,145.15,201.85,530.7,Single-ply,SBD,M,
Boys,67.13,3,Isaias Salinas,McAllen Memorial,65.63,179.17,122.47,213.19,514.83,Single-ply,SBD,M,
Boys,67.13,4,Thomas Rivera,Sharyland Pioneer,67.04,197.31,117.93,195.04,510.29,Single-ply,SBD,M,
Boys,67.13,5,Diego Perez #6,Edinburg Quest College Prep,67.13,204.12,92.99,201.85,498.95,Single-ply,SBD,M,
Boys,67.13,6,Juan Gomez,Weslaco East,67.13,192.78,97.52,206.38,496.68,Single-ply,SBD,M,
Boys,67.13,7,Jayden Silguero,La Villa,66.68,192.78,117.93,183.7,494.42,Single-ply,SBD,M,
Boys,67.13,8,Noe Gonzalez,McAllen Memorial,66.86,179.17,115.67,183.7,478.54,Single-ply,SBD,M,
Boys,67.13,9,Sergio Montano,Sharyland Pioneer,66,179.17,104.33,192.78,476.27,Single-ply,SBD,M,
Boys,67.13,10,Pablo López,Mission Veterans Memorial,65.36,185.97,111.13,176.9,474,Single-ply,SBD,M,
Boys,67.13,11,Eduardo Ordaz,Mission Veterans Memorial,66.59,183.7,115.67,172.37,471.74,Single-ply,SBD,M,
Boys,67.13,12,Ryen Abrego,Edinburg,65.05,172.37,115.67,156.49,444.52,Single-ply,SBD,M,
Boys,67.13,13,Nate Rios,Edinburg,67.13,158.76,99.79,165.56,424.11,Single-ply,SBD,M,
Boys,67.13,14,Uziel Vasquez,Edinburg Idea College Prep,61.01,163.29,90.72,136.08,390.09,Single-ply,SBD,M,
Boys,67.13,15,Brenden Gonzalez,PSJA Memorial,61.23,145.15,90.72,149.69,385.55,Single-ply,SBD,M,
Boys,67.13,16,Ricardo Bernal,McAllen Rowe,65.82,145.15,92.99,147.42,385.55,Single-ply,SBD,M,
Boys,67.13,17,Joaquin Castaneda,Edinburg Economedes,66.22,145.15,77.11,163.29,385.55,Single-ply,SBD,M,
Boys,67.13,18,Andrew Knoblach,Sharyland Pioneer,66.59,142.88,86.18,145.15,374.21,Single-ply,SBD,M,
Boys,67.13,19,Ramon Ortiz,Edinburg Quest College Prep,60.24,136.08,74.84,142.88,353.8,Single-ply,SBD,M,
Boys,67.13,20,Francisco Lopez,McAllen Rowe,66.09,124.74,81.65,147.42,353.8,Single-ply,SBD,M,
Boys,67.13,21,Joel Sanchez #8,PSJA Southwest,62.1,142.88,68.04,129.27,340.19,Single-ply,SBD,M,
Boys,67.13,22,Ulyess Carlos,McAllen Memorial,64.36,108.86,52.16,97.52,258.55,Single-ply,SBD,M,
Boys,67.13,23,Rafael Oyervides,Edinburg Idea College Prep,62.32,88.45,45.36,97.52,231.33,Single-ply,SBD,M,
Boys,67.13,24,Thomas Marina,Sharyland Pioneer,66.86,190.51,,,190.51,Single-ply,S,M,
Boys,67.13,25,Darren Perez,Harlingen South,60.6,158.76,,,158.76,Single-ply,S,M,
Boys,74.84,1,Marckopolo Cavazos,Mission Veterans Memorial,72.85,249.48,124.74,240.4,614.62,Single-ply,SBD,M,
Boys,74.84,2,Aj Contreras,La Villa,70.03,226.8,124.74,210.92,562.45,Single-ply,SBD,M,
Boys,74.84,3,Jerry Rodriguez,McAllen Memorial,72.39,213.19,129.27,183.7,526.17,Single-ply,SBD,M,
Boys,74.84,4,Luis Segura,PSJA Southwest,74.84,188.24,131.54,192.78,512.56,Single-ply,SBD,M,
Boys,74.84,5,Domingo Luevano,Edinburg,74.21,190.51,147.42,170.1,508.02,Single-ply,SBD,M,
Boys,74.84,6,Izaac Estrada,Edcouch-Elsa,74.03,199.58,99.79,195.04,494.42,Single-ply,SBD,M,
Boys,74.84,7,John Lopez,Weslaco East,70.03,170.1,115.67,188.24,474,Single-ply,SBD,M,
Boys,74.84,8,Derrek Ramirez,Weslaco East,69.58,176.9,102.06,192.78,471.74,Single-ply,SBD,M,
Boys,74.84,9,Bryan Salinas,Edinburg,72.26,163.29,104.33,163.29,430.91,Single-ply,SBD,M,
Boys,74.84,10,Alex Garcia #23,McAllen Rowe,69.58,151.95,108.86,165.56,426.38,Single-ply,SBD,M,
Boys,74.84,11,Cristian Lopez,Edinburg Economedes,74.3,147.42,79.38,156.49,383.29,Single-ply,SBD,M,
Boys,74.84,12,Jacob Rebollar,Donna,67.63,136.08,72.57,136.08,344.73,Single-ply,SBD,M,
Boys,74.84,13,Tristan Zamora,Edinburg,69.67,136.08,79.38,122.47,337.93,Single-ply,SBD,M,
Boys,74.84,DQ,Jaime Anaya,Santa Rosa,73.39,154.22,102.06,,,Single-ply,SBD,M,
Boys,82.1,1,Izaac Parra,Harlingen South,82.1,244.94,129.27,215.46,589.67,Single-ply,SBD,M,
Boys,82.1,2,Javier Ornelas,Mission Veterans Memorial,77.11,215.46,142.88,213.19,571.53,Single-ply,SBD,M,
Boys,82.1,3,Diego Ortiz,Weslaco East,77.88,208.65,124.74,206.38,539.77,Single-ply,SBD,M,
Boys,82.1,4,Marcelo Cantu,Mission Veterans Memorial,80.33,206.38,102.06,217.72,526.17,Single-ply,SBD,M,
Boys,82.1,5,Homero Cardenas,Edinburg,79.38,201.85,108.86,185.97,496.68,Single-ply,SBD,M,
Boys,82.1,6,Jose Chapa,Donna,80.6,190.51,102.06,188.24,480.81,Single-ply,SBD,M,
Boys,82.1,7,Paul Villalpando,Edcouch-Elsa,80.92,174.63,99.79,183.7,458.13,Single-ply,SBD,M,
Boys,82.1,8,Lupe Garcia,PSJA Southwest,79.29,158.76,102.06,195.04,455.86,Single-ply,SBD,M,
Boys,82.1,9,Jesus Badillo,Mission Veterans Memorial,80.56,176.9,97.52,176.9,451.32,Single-ply,SBD,M,
Boys,82.1,10,Patricio Garcia,McAllen Rowe,79.92,161.03,127.01,161.03,449.06,Single-ply,SBD,M,
Boys,82.1,11,Eric Requenez,McAllen Rowe,79.42,163.29,106.59,167.83,437.72,Single-ply,SBD,M,
Boys,82.1,12,Noah San Miguel,Monte Alto,78.97,167.83,97.52,163.29,428.64,Single-ply,SBD,M,
Boys,82.1,13,Andrew Ballin,Santa Rosa,77.11,163.29,86.18,176.9,426.38,Single-ply,SBD,M,
Boys,82.1,14,Albert Gamez,Edinburg,80.65,167.83,104.33,154.22,426.38,Single-ply,SBD,M,
Boys,82.1,15,Fernando Morales,Edinburg Economedes,80.78,147.42,90.72,174.63,412.77,Single-ply,SBD,M,
Boys,82.1,16,Edwin Gaytan,Edinburg Economedes,76.16,147.42,65.77,176.9,390.09,Single-ply,SBD,M,
Boys,82.1,17,Eric Hernandez,Edinburg,79.29,151.95,102.06,136.08,390.09,Single-ply,SBD,M,
Boys,82.1,18,Charlie Bell,Edinburg Economedes,77.84,136.08,90.72,161.03,387.82,Single-ply,SBD,M,
Boys,82.1,19,Jetzael Ramos,PSJA Southwest,81.24,151.95,79.38,136.08,367.41,Single-ply,SBD,M,
Boys,82.1,20,Marko Silva,Edinburg Economedes,78.93,113.4,61.23,156.49,331.12,Single-ply,SBD,M,
Boys,82.1,21,Javier Saldana,Edinburg,80.01,136.08,81.65,111.13,328.85,Single-ply,SBD,M,
Boys,82.1,DQ,Heston Garza,Edcouch-Elsa,81.74,204.12,102.06,,,Single-ply,SBD,M,
Boys,82.1,DQ,Isaiah Mata,McAllen Rowe,78.47,183.7,113.4,,,Single-ply,SBD,M,
Boys,89.81,1,Joel Ramirez,Donna,87.23,238.14,120.2,222.26,580.6,Single-ply,SBD,M,
Boys,89.81,2,Cj Vallejo,Edcouch-Elsa,89.04,233.6,129.27,201.85,564.72,Single-ply,SBD,M,
Boys,89.81,3,Jaime Munoz,Weslaco East,85.37,222.26,124.74,213.19,560.19,Single-ply,SBD,M,
Boys,89.81,4,Daniel De La Cruz,McAllen Memorial,87.45,192.78,124.74,210.92,528.44,Single-ply,SBD,M,
Boys,89.81,5,Tony Ruiz,Donna,86.41,226.8,102.06,172.37,501.22,Single-ply,SBD,M,
Boys,89.81,6,Adrian Salinas,Edinburg,82.28,192.78,122.47,183.7,498.95,Single-ply,SBD,M,
Boys,89.81,7,Jonathan Hernandez,Edinburg Economedes,85.5,183.7,111.13,192.78,487.61,Single-ply,SBD,M,
Boys,89.81,8,Tim Plata,Edinburg Economedes,88.99,156.49,106.59,190.51,453.59,Single-ply,SBD,M,
Boys,89.81,9,Ruben Alvarez,PSJA Southwest,87.59,131.54,90.72,138.35,360.61,Single-ply,SBD,M,
Boys,89.81,DQ,Oziel Flores,PSJA Memorial,83.42,174.63,,,,Single-ply,SBD,M,
Boys,89.81,DQ,Caleb Anaya,Harlingen South,85.73,222.26,,,,Single-ply,SBD,M,
Boys,99.79,1,Josue Moralez,Weslaco East,97.43,240.4,165.56,233.6,639.57,Single-ply,SBD,M,
Boys,99.79,2,Jerry Reyes,La Villa,90.85,251.74,172.37,195.04,619.15,Single-ply,SBD,M,
Boys,99.79,3,Caleb Torrez,Donna,96.8,231.33,142.88,231.33,605.55,Single-ply,SBD,M,
Boys,99.79,4,Francisco Gomez,Mission Veterans Memorial,94.17,238.14,145.15,213.19,596.47,Single-ply,SBD,M,
Boys,99.79,5,Gabriel Ortiz,Donna,99.52,224.53,151.95,213.19,589.67,Single-ply,SBD,M,
Boys,99.79,6,Hugo Burroso,Sharyland Pioneer,97.07,235.87,111.13,231.33,578.33,Single-ply,SBD,M,
Boys,99.79,7,Ever Reyes,La Villa,91.17,231.33,138.35,204.12,573.79,Single-ply,SBD,M,
Boys,99.79,8,Israel Nicanor,Sharyland Pioneer,95.62,235.87,117.93,217.72,571.53,Single-ply,SBD,M,
Boys,99.79,9,Antonio Saldana,Santa Rosa,98.66,226.8,142.88,197.31,566.99,Single-ply,SBD,M,
Boys,99.79,10,Mark Pena,PSJA Memorial,98.61,201.85,133.81,210.92,546.58,Single-ply,SBD,M,
Boys,99.79,11,Gilbert Lerma,Harlingen South,92.99,219.99,131.54,190.51,542.04,Single-ply,SBD,M,
Boys,99.79,12,Ryan Garza,Edinburg,94.12,199.58,142.88,192.78,535.24,Single-ply,SBD,M,
Boys,99.79,13,Diego Flores,Santa Rosa,90.17,183.7,117.93,172.37,474,Single-ply,SBD,M,
Boys,99.79,14,Diego Salinas,Edinburg Economedes,98.61,174.63,106.59,188.24,469.47,Single-ply,SBD,M,
Boys,99.79,15,Ismael Garcia,Edinburg Economedes,92.76,188.24,95.25,172.37,455.86,Single-ply,SBD,M,
Boys,99.79,16,Heriberto Rocha,PSJA Southwest,93.76,167.83,111.13,176.9,455.86,Single-ply,SBD,M,
Boys,99.79,17,Cristofer Ontiveros,Edinburg Economedes,95.89,172.37,79.38,181.44,433.18,Single-ply,SBD,M,
Boys,99.79,18,Demetrio Talamantes,McAllen Rowe,99.16,174.63,86.18,158.76,419.57,Single-ply,SBD,M,
Boys,99.79,19,Alejandro Bosada,McAllen Rowe,90.72,170.1,72.57,151.95,394.63,Single-ply,SBD,M,
Boys,99.79,20,Anthony Gonzalez,Edinburg Economedes,92.22,129.27,86.18,174.63,390.09,Single-ply,SBD,M,
Boys,99.79,21,Antonio González,Edinburg Economedes,97.98,133.81,90.72,158.76,383.29,Single-ply,SBD,M,
Boys,99.79,22,Eddie Guijarro,PSJA Southwest,98.47,142.88,90.72,140.61,374.21,Single-ply,SBD,M,
Boys,99.79,23,Jesus Ponce,PSJA Southwest,93.12,142.88,58.97,145.15,347,Single-ply,SBD,M,
Boys,99.79,24,Salomon Romero,PSJA Southwest,96.07,124.74,90.72,124.74,340.19,Single-ply,SBD,M,
Boys,99.79,25,Samuel Trevino,Edinburg Quest College Prep,94.62,106.59,95.25,124.74,326.59,Single-ply,SBD,M,
Boys,99.79,26,Damian Santana,Edinburg Idea College Prep,92.85,108.86,45.36,115.67,269.89,Single-ply,SBD,M,
Boys,99.79,DQ,Alejandro Corona,PSJA Memorial,93.21,183.7,120.2,,,Single-ply,SBD,M,
Boys,109.77,1,Justin Esquivel,Edcouch-Elsa,109.36,301.64,190.51,240.4,732.55,Single-ply,SBD,M,
Boys,109.77,2,Kelvin Flores,Weslaco East,107.46,254.01,192.78,249.48,696.26,Single-ply,SBD,M,
Boys,109.77,3,Ryan Creasy,McAllen Rowe,106.68,247.21,185.97,249.48,682.66,Single-ply,SBD,M,
Boys,109.77,4,Isaac Gonzalez,Weslaco East,104.96,254.01,185.97,226.8,666.78,Single-ply,SBD,M,
Boys,109.77,5,Jj Johnson,McAllen Memorial,103.15,272.16,142.88,226.8,641.83,Single-ply,SBD,M,
Boys,109.77,6,Julian Gonzalez,Weslaco East,104.78,235.87,158.76,215.46,610.08,Single-ply,SBD,M,
Boys,109.77,7,Devincus Altamirano,Edcouch-Elsa,108.5,254.01,136.08,190.51,580.6,Single-ply,SBD,M,
Boys,109.77,8,Victor Martinez,PSJA Memorial,103.74,233.6,136.08,206.38,576.06,Single-ply,SBD,M,
Boys,109.77,9,Alexander Saenz,Edinburg Economedes,109.04,183.7,97.52,192.78,474,Single-ply,SBD,M,
Boys,109.77,10,Saul Zamora,Donna,100.33,188.24,111.13,158.76,458.13,Single-ply,SBD,M,
Boys,109.77,11,Edrwin Guajardo,Monte Alto,101.38,174.63,95.25,188.24,458.13,Single-ply,SBD,M,
Boys,109.77,12,Frank Tovar,Monte Alto,107.68,149.69,88.45,183.7,421.84,Single-ply,SBD,M,
Boys,109.77,13,Dante Matamoros,Edinburg Idea College Prep,102.47,145.15,97.52,149.69,392.36,Single-ply,SBD,M,
Boys,109.77,14,Juan Ybarra,Monte Alto,100.79,145.15,90.72,151.95,387.82,Single-ply,SBD,M,
Boys,109.77,DQ,Jose Fernandez #7,Edinburg Quest College Prep,101.02,,,,,Single-ply,SBD,M,
Boys,124.74,1,Justin Sandoval,Edcouch-Elsa,123.92,306.17,174.63,233.6,714.41,Single-ply,SBD,M,
Boys,124.74,2,Carlos Rodriguez #13,McAllen Memorial,116.57,281.23,181.44,240.4,703.07,Single-ply,SBD,M,
Boys,124.74,3,Carlos Torres,Donna,123.56,244.94,120.2,224.53,589.67,Single-ply,SBD,M,
Boys,124.74,4,Juan Garcia #7,McAllen Rowe,122.65,215.46,158.76,183.7,557.92,Single-ply,SBD,M,
Boys,124.74,5,Ethan Hinojosa,Sharyland Pioneer,117.03,192.78,127.01,208.65,528.44,Single-ply,SBD,M,
Boys,124.74,6,Michael Alegria,Weslaco East,121.83,192.78,140.61,190.51,523.9,Single-ply,SBD,M,
Boys,124.74,7,Arturo Sauceda,Santa Rosa,120.07,170.1,95.25,149.69,415.04,Single-ply,SBD,M,
Boys,124.74,8,Fabian Villianueva,Edinburg Economedes,119.11,117.93,72.57,122.47,312.98,Single-ply,SBD,M,
Boys,124.74,9,Alex Flores,Monte Alto,118.07,83.91,61.23,129.27,274.42,Single-ply,SBD,M,
Boys,124.74,DQ,Julian Lopez,PSJA Memorial,114.53,249.48,133.81,,,Single-ply,SBD,M,
Boys,124.74,DQ,Aaron Mendoza,Santa Rosa,117.53,195.04,104.33,,,Single-ply,SBD,M,
Boys,124.74,DQ,Gus De La Cerda,Donna,115.03,219.99,113.4,,,Single-ply,SBD,M,
Boys,139.71,1,Jaime Elissetche,La Villa,125.78,294.84,147.42,226.8,669.05,Single-ply,SBD,M,
Boys,139.71,2,Oscar de la Cruz,PSJA Southwest,134.4,235.87,167.83,242.67,646.37,Single-ply,SBD,M,
Boys,139.71,3,Deven Martinez,Edcouch-Elsa,138.94,269.89,136.08,231.33,637.3,Single-ply,SBD,M,
Boys,139.71,4,Gerardo Rios,Santa Rosa,128.09,263.08,142.88,226.8,632.76,Single-ply,SBD,M,
Boys,139.71,5,Thomas Domian,McAllen Memorial,127.37,249.48,181.44,199.58,630.49,Single-ply,SBD,M,
Boys,139.71,6,Gael Pineda,PSJA Memorial,136.17,215.46,140.61,188.24,544.31,Single-ply,SBD,M,
Boys,139.71,7,Nelson Quintero,Edinburg Idea College Prep,133.08,195.04,131.54,170.1,496.68,Single-ply,SBD,M,
Boys,139.71,8,Joaquin Montes,Harlingen South,133.9,154.22,92.99,151.95,399.16,Single-ply,SBD,M,
Boys,139.71,9,Carlos Becerra,PSJA Southwest,138.84,142.88,102.06,142.88,387.82,Single-ply,SBD,M,
Boys,139.71,10,Jordan Guevara,Edinburg Economedes,136.98,92.99,36.29,117.93,247.21,Single-ply,SBD,M,
Boys,139.71+,1,Caleb Davis,Harlingen South,158.67,337.93,208.65,256.28,802.86,Single-ply,SBD,M,
Boys,139.71+,2,Dexter Delgado,Harlingen South,174.13,274.42,204.12,226.8,705.34,Single-ply,SBD,M,
Boys,139.71+,3,Juan Barrera,Edcouch-Elsa,147.51,294.84,179.17,229.06,703.07,Single-ply,SBD,M,
Boys,139.71+,4,Martin Maldonado,Edcouch-Elsa,152.5,249.48,161.03,210.92,621.42,Single-ply,SBD,M,
Boys,139.71+,5,Daniel Garcia #15,Weslaco East,140.61,188.24,124.74,147.42,460.4,Single-ply,SBD,M,
Boys,139.71+,6,Gabriel Banda,McAllen Rowe,145.33,158.76,117.93,156.49,433.18,Single-ply,SBD,M,
