Division,WeightClassKg,Place,Name,Team,BodyweightKg,Best3SquatKg,Best3BenchKg,Best3DeadliftKg,TotalKg,Equipment,Event,Sex,BirthDate
Boys,51.71,1,Ethan Casey,Mansfield,51.62,65.77,52.16,79.38,197.31,Unlimited,SBD,M,
Boys,51.71,DQ,Ahmed Balfaquih,Mansfield Summit,44.91,,,,,Unlimited,SBD,M,
Boys,59.87,1,Carlos Lazada,Mansfield Summit,59.87,133.81,90.72,170.1,394.63,Unlimited,SBD,M,
Boys,59.87,2,Marcus Mootoosammy,Mansfield Summit,59.87,133.81,86.18,142.88,362.87,Unlimited,SBD,M,
Boys,59.87,DQ,Liam McElroy,Mansfield Legacy,58.79,83.91,83.91,,,Unlimited,SBD,M,
Boys,67.13,1,Jadan Nguyen,Mansfield Timberview,63.05,174.63,97.52,170.1,442.25,Unlimited,SBD,M,
Boys,67.13,2,Allen Saldivar,Mansfield Timberview,65.32,165.56,83.91,183.7,433.18,Unlimited,SBD,M,
Boys,67.13,3,Denzel Nievas,Mansfield,65.32,83.91,74.84,133.81,292.57,Unlimited,SBD,M,
Boys,67.13,DQ,William Buckley,Mansfield Lake Ridge,67.13,142.88,,156.49,,Unlimited,SBD,M,
Boys,74.84,1,Nick Beck,Mansfield Legacy,74.84,158.76,99.79,161.03,419.57,Unlimited,SBD,M,
Boys,74.84,2,Nathaniel Pardue,Mansfield Legacy,71.49,151.95,99.79,163.29,415.04,Unlimited,SBD,M,
Boys,74.84,3,Ian Glendenning,Mansfield Lake Ridge,70.31,142.88,83.91,165.56,392.36,Unlimited,SBD,M,
Boys,74.84,4,Beckett McCord,Mansfield,70.31,149.69,90.72,142.88,383.29,Unlimited,SBD,M,
Boys,74.84,5,Jack Cooper,Mansfield,74.84,124.74,68.04,174.63,367.41,Unlimited,SBD,M,
Boys,82.1,1,Nathan Tang,Mansfield Lake Ridge,82.1,229.06,111.13,226.8,566.99,Unlimited,SBD,M,
Boys,82.1,2,Jesus Alvarez,Mansfield Timberview,82.1,215.46,124.74,204.12,544.31,Unlimited,SBD,M,
Boys,82.1,3,Kie Jones,Mansfield Lake Ridge,78.93,206.38,136.08,174.63,517.1,Unlimited,SBD,M,
Boys,82.1,4,Ernesto Chavez,Mansfield Timberview,82.1,215.46,124.74,176.9,517.1,Unlimited,SBD,M,
Boys,82.1,5,Thomas Barrett,Mansfield,76.38,192.78,124.74,195.04,512.56,Unlimited,SBD,M,
Boys,82.1,6,Jaden Williams,Mansfield Summit,78.02,192.78,124.74,188.24,505.76,Unlimited,SBD,M,
Boys,82.1,7,Mark Hamilton,Mansfield Summit,81.65,183.7,115.67,165.56,464.93,Unlimited,SBD,M,
Boys,82.1,8,Cortez Brown,Mansfield Summit,79.83,170.1,97.52,170.1,437.72,Unlimited,SBD,M,
Boys,82.1,9,Jaden Marino,Mansfield,82.1,147.42,92.99,161.03,401.43,Unlimited,SBD,M,
Boys,82.1,10,Sam Aluwaleye,Mansfield Timberview,81.19,124.74,102.06,151.95,378.75,Unlimited,SBD,M,
Boys,82.1,11,Jackson Hyde,Mansfield,81.19,129.27,88.45,142.88,360.61,Unlimited,SBD,M,
Boys,82.1,12,London Fortenberry,Mansfield Lake Ridge,79.83,120.2,79.38,131.54,331.12,Unlimited,SBD,M,
Boys,89.81,1,Hayden Edwards,Mansfield Lake Ridge,88,240.4,133.81,206.38,580.6,Unlimited,SBD,M,
Boys,89.81,2,Shane Bailey,Mansfield,89.63,183.7,129.27,201.85,514.83,Unlimited,SBD,M,
Boys,89.81,3,Vincent Allen,Mansfield Lake Ridge,83.01,170.1,124.74,165.56,460.4,Unlimited,SBD,M,
Boys,89.81,4,Roscoe Jenson,Mansfield Timberview,85.28,158.76,97.52,183.7,439.98,Unlimited,SBD,M,
Boys,89.81,5,Michael Cooper,Mansfield Timberview,84.82,165.56,120.2,151.95,437.72,Unlimited,SBD,M,
Boys,89.81,6,Joel Sparks,Mansfield,86.73,127.01,92.99,149.69,369.68,Unlimited,SBD,M,
Boys,89.81,7,Rufus Sanchez,Mansfield,83.01,122.47,61.23,142.88,326.59,Unlimited,SBD,M,
Boys,89.81,8,Fernando Sanchez,Mansfield Legacy,84.46,90.72,92.99,124.74,308.44,Unlimited,SBD,M,
Boys,99.79,1,Caleb Roach,Mansfield Summit,98.34,185.97,108.86,215.46,510.29,Unlimited,SBD,M,
Boys,99.79,2,Dillon Dansby,Mansfield Timberview,92.08,183.7,117.93,179.17,480.81,Unlimited,SBD,M,
Boys,99.79,DQ,Nathan Akinola,Mansfield Lake Ridge,99.34,,133.81,197.31,,Unlimited,SBD,M,
Boys,109.77,1,Jayden Porter,Mansfield Summit,107.32,226.8,124.74,226.8,578.33,Unlimited,SBD,M,
Boys,109.77,2,Napon Bamrung,Mansfield Timberview,101.6,206.38,124.74,192.78,523.9,Unlimited,SBD,M,
Boys,109.77,3,Jaden Coburn,Mansfield Summit,104.78,174.63,136.08,197.31,508.02,Unlimited,SBD,M,
Boys,109.77,4,Alec Cano,Mansfield Legacy,106.32,183.7,111.13,197.31,492.15,Unlimited,SBD,M,
Boys,124.74,1,Jonah Pedroza,Mansfield Legacy,122.47,263.08,147.42,249.48,659.98,Unlimited,SBD,M,
Boys,124.74,2,David Love,Mansfield Legacy,121.02,204.12,142.88,215.46,562.45,Unlimited,SBD,M,
Boys,124.74,3,Precious Dan-Duker,Mansfield,120.2,213.19,120.2,206.38,539.77,Unlimited,SBD,M,
Boys,124.74,4,Mason Johnson,Mansfield Lake Ridge,115.21,215.46,133.81,183.7,532.97,Unlimited,SBD,M,
Boys,124.74,5,Michael Gillen,Mansfield,124.28,165.56,120.2,190.51,476.27,Unlimited,SBD,M,
Boys,124.74,6,Jeremy Odunsi,Mansfield Legacy,111.95,165.56,99.79,165.56,430.91,Unlimited,SBD,M,
Boys,124.74,DQ,Jacob Lee,Mansfield Timberview,119.29,,,,,Unlimited,SBD,M,
Boys,124.74,DQ,Chris Zuniga,Mansfield Timberview,119.75,174.63,,158.76,,Unlimited,SBD,M,
Boys,139.71,1,David Dalton,Mansfield Legacy,127.28,210.92,145.15,206.38,562.45,Unlimited,SBD,M,
Boys,139.71,2,Reggie Williams,Mansfield Summit,139.71,151.95,99.79,156.49,408.23,Unlimited,SBD,M,
Boys,139.71,3,Max Dearinger,Mansfield Legacy,126.1,136.08,61.23,142.88,340.19,Unlimited,SBD,M,
Boys,139.71+,1,Marco Herrera,Mansfield Timberview,148.32,242.67,142.88,199.58,585.13,Unlimited,SBD,M,
